{
  "components": [
    {
      "data": {
        "contents_checksum": "c68f29c647df38e214fe72b96362cef8d6a78e49c4dd1213f8b90521d5fb2977",
        "source": "",
        "type": "tar"
      },
      "dependencies": [
        "core",
        "gcloud-deps"
      ],
      "details": {
        "description": "Set of third_party gcloud cli dependencies.",
        "display_name": "gcloud cli dependencies"
      },
      "id": "gcloud-deps-darwin-x86_64",
      "is_configuration": false,
      "is_hidden": true,
      "is_required": false,
      "platform": {
        "architectures": [
          "x86_64"
        ],
        "operating_systems": [
          "MACOSX"
        ]
      },
      "version": {
        "build_number": 20200610133320,
        "version_string": "2020.06.10"
      }
    }
  ],
  "revision": 20200610133320,
  "schema_version": {
    "no_update": false,
    "url": "https://dl.google.com/dl/cloudsdk/channels/rapid/google-cloud-sdk.tar.gz",
    "version": 3
  },
  "version": "296.0.1"
}